C:\Git\EP20180526_MMFA_SYSTEM\EP20180526_MMFA_SYSTEM\EP20180526_MMFA_SYSTEM
--output-path=obj\Release\netcoreapp2.0\
--application-name=EP20180526_MMFA_SYSTEM
--content-root=C:\Git\EP20180526_MMFA_SYSTEM\EP20180526_MMFA_SYSTEM\EP20180526_MMFA_SYSTEM
--file=C:\Git\EP20180526_MMFA_SYSTEM\EP20180526_MMFA_SYSTEM\EP20180526_MMFA_SYSTEM\Views\Account\Login.cshtml
--file=C:\Git\EP20180526_MMFA_SYSTEM\EP20180526_MMFA_SYSTEM\EP20180526_MMFA_SYSTEM\Views\Account\Registration.cshtml
--file=C:\Git\EP20180526_MMFA_SYSTEM\EP20180526_MMFA_SYSTEM\EP20180526_MMFA_SYSTEM\Views\Employers\Index.cshtml
--file=C:\Git\EP20180526_MMFA_SYSTEM\EP20180526_MMFA_SYSTEM\EP20180526_MMFA_SYSTEM\Views\Employers\NoAuthorizeEmpoyers.cshtml
--file=C:\Git\EP20180526_MMFA_SYSTEM\EP20180526_MMFA_SYSTEM\EP20180526_MMFA_SYSTEM\Views\Home\About.cshtml
--file=C:\Git\EP20180526_MMFA_SYSTEM\EP20180526_MMFA_SYSTEM\EP20180526_MMFA_SYSTEM\Views\Home\Contact.cshtml
--file=C:\Git\EP20180526_MMFA_SYSTEM\EP20180526_MMFA_SYSTEM\EP20180526_MMFA_SYSTEM\Views\Home\Index.cshtml
--file=C:\Git\EP20180526_MMFA_SYSTEM\EP20180526_MMFA_SYSTEM\EP20180526_MMFA_SYSTEM\Views\Information\Index.cshtml
--file=C:\Git\EP20180526_MMFA_SYSTEM\EP20180526_MMFA_SYSTEM\EP20180526_MMFA_SYSTEM\Views\Shared\Error.cshtml
--file=C:\Git\EP20180526_MMFA_SYSTEM\EP20180526_MMFA_SYSTEM\EP20180526_MMFA_SYSTEM\Views\Shared\_Layout.cshtml
--file=C:\Git\EP20180526_MMFA_SYSTEM\EP20180526_MMFA_SYSTEM\EP20180526_MMFA_SYSTEM\Views\Shared\_ValidationScriptsPartial.cshtml
--file=C:\Git\EP20180526_MMFA_SYSTEM\EP20180526_MMFA_SYSTEM\EP20180526_MMFA_SYSTEM\Views\_ViewImports.cshtml
--file=C:\Git\EP20180526_MMFA_SYSTEM\EP20180526_MMFA_SYSTEM\EP20180526_MMFA_SYSTEM\Views\_ViewStart.cshtml
